Shiny Workshop: Some best practices
…
                cavity_nesters %>% 
                    mutate(egg_efficiency = # calculate return of eggs/ unit food
                           egg_capacity/
                           (seed + fish +
                            fruit + rodent +
                            nectar + any_food)) %>%
                    arrange(desc(egg_efficiency)) %>% # arrange in descending order
                    select(common_name, egg_efficiency) %>%
                    filter(egg_efficiency >= 3) # keep only birds with efficiency >= 3

# A tibble: 39 x 2
   common_name          egg_efficiency
   <chr>                         <dbl>
 1 Black Vulture                   Inf
 2 Common Swift                    Inf
 3 European Bee-Eater              Inf
 4 House Wren                      Inf
 5 Purple Martin                   Inf
 6 Turkey Vulture                  Inf
 7 Vaux's Swift                    Inf
 8 Violet-Green Swallow            Inf
 9 White-Throated Swift            Inf
10 Coal Tit                          6
# ... with 29 more rows
…
# And make a summary dataframe for cavity nesters

          calc_egg_eff(bird_df = cavity_nesters,
                       egg_threshold = 3) 

# A tibble: 39 x 2
   common_name          egg_efficiency
   <chr>                         <dbl>
 1 Black Vulture                   Inf
 2 Common Swift                    Inf
 3 European Bee-Eater              Inf
 4 House Wren                      Inf
 5 Purple Martin                   Inf
 6 Turkey Vulture                  Inf
 7 Vaux's Swift                    Inf
 8 Violet-Green Swallow            Inf
 9 White-Throated Swift            Inf
10 Coal Tit                          6
# ... with 29 more rows
…
